{
  "$schema": "https://developer.microsoft.com/json-schemas/spfx-build/config.2.0.schema.json",
  "version": "2.0",
  "bundles": {
    "faqswebpart-web-part": {
      "components": [
        {
          "entrypoint": "./lib/webparts/faqswebpart/FaqswebpartWebPart.js",
          "manifest": "./src/webparts/faqswebpart/FaqswebpartWebPart.manifest.json"
        }
      ]
    }
  },
  "externals": {},
  "localizedResources": {
    "FaqswebpartWebPartStrings": "lib/webparts/faqswebpart/loc/{locale}.js",
    "ControlStrings": "node_modules/@pnp/spfx-controls-react/lib/loc/{locale}.js",
    "PropertyControlStrings": "node_modules/@pnp/spfx-property-controls/lib/loc/{locale}.js"
  }
}